…
```r
?starwars # help and info about df, opens up a html page

starwars %>% count(species) # a count of each species in df
```

```
## # A tibble: 38 x 2
##    species       n
##    <chr>     <int>
##  1 Aleena        1
##  2 Besalisk      1
##  3 Cerean        1
##  4 Chagrian      1
##  5 Clawdite      1
##  6 Droid         6
##  7 Dug           1
##  8 Ewok          1
##  9 Geonosian     1
## 10 Gungan        3
## # ... with 28 more rows
```
…
